C:\Users\Angel\Documents\NetBeansProjects\ejemplo8\src\main\java\com\mycompany\ejemplo8\Resta_ClaseHija.java
C:\Users\Angel\Documents\NetBeansProjects\ejemplo8\src\main\java\com\mycompany\ejemplo8\Ejemplo8.java
C:\Users\Angel\Documents\NetBeansProjects\ejemplo8\src\main\java\com\mycompany\ejemplo8\Operaciones_ClasePadre.java
C:\Users\Angel\Documents\NetBeansProjects\ejemplo8\src\main\java\com\mycompany\ejemplo8\Suma_ClaseHija.java
